﻿division_template = {
	name = "Mechanized Brigade"

	regiments = {
		Mot_Inf_Bat = { x = 0 y = 0 }
		Mot_Inf_Bat = { x = 0 y = 1 }
		Mot_Inf_Bat = { x = 0 y = 2 }
		Mech_Inf_Bat = { x = 0 y = 2 }
	}

	support = {
		Arty_Battery = { x = 0 y = 0 }
		L_Engi_Comp = { x = 0 y = 1 }
	}
}
division_template = {
	name = "Air Assault Brigade"

	regiments = {
		L_Air_assault_Bat = { x = 0 y = 0 }
		L_Air_assault_Bat = { x = 0 y = 1 }
	}
}
division_template = {
	name = "Counter Guerrilla Force"

	regiments = {
		L_Inf_Bat = { x = 0 y = 0 }
		L_Inf_Bat = { x = 0 y = 1 }
		Special_Forces = { x = 1 y = 0 }
		Special_Forces = { x = 1 y = 1 }
	}
}
division_template = {
	name = "Infantry Division" #While the various Colombian Divisions have different makeups, the differences are usually regiments not represented by the mod, so I made one for most of them.

	regiments = {
		L_Inf_Bat = { x = 0 y = 0 }
		L_Inf_Bat = { x = 0 y = 1 }
		L_Inf_Bat = { x = 0 y = 2 }
		Special_Forces = { x = 0 y = 3 }
		Arty_Bat = { x = 0 y = 4 }
		Special_Forces = { x = 1 y = 0 }
		Special_Forces = { x = 1 y = 1 }
		Special_Forces = { x = 1 y = 2 }
		Arty_Bat = { x = 1 y = 3 }
	}

	support = {
		H_Engi_Comp = { x = 0 y = 0 }
	}
}


units = {
	division = {
		name = "1st Mechanized Brigade"
		location = 8056
		division_template = "Mechanized Brigade"
		start_experience_factor = 0.5
		start_equipment_factor = 0.01
	}
	division = {
		name = "2nd Mechanized Brigade"
		location = 7993
		division_template = "Mechanized Brigade"
		start_experience_factor = 0.5
		start_equipment_factor = 0.01
	}
	division = {
		name = "3rd Mechanized Brigade"
		location = 7936
		division_template = "Mechanized Brigade"
		start_experience_factor = 0.5
		start_equipment_factor = 0.01
	}
	division = {
		name = "4th Mechanized Brigade"
		location = 10553
		division_template = "Mechanized Brigade"
		start_experience_factor = 0.5
		start_equipment_factor = 0.01
	}
	division = {
		name = "5th Mechanized Brigade"
		location = 10747
		division_template = "Mechanized Brigade"
		start_experience_factor = 0.5
		start_equipment_factor = 0.01
	}
	division = {
		name = "6th Mechanized Brigade"
		location = 2007
		division_template = "Mechanized Brigade"
		start_experience_factor = 0.5
		start_equipment_factor = 0.01
	}


	division = {
		name = "1st Air Assault Brigade"
		location = 10251
		division_template = "Air Assault Brigade"
		start_experience_factor = 0.5
		start_equipment_factor = 0.01
	}

	division = {
		name = "2nd Air Assault Brigade"
		location = 10792
		division_template = "Air Assault Brigade"
		start_experience_factor = 0.5
		start_equipment_factor = 0.01
	}

	division = {
		name = "1st Infantry Division"
		location = 11469
		division_template = "Infantry Division"
		start_experience_factor = 0.5
		start_equipment_factor = 0.01
	}
	division = {
		name = "2nd Infantry Division"
		location = 1887
		division_template = "Infantry Division"
		start_experience_factor = 0.5
		start_equipment_factor = 0.01
	}
	division = {
		name = "3rd Infantry Division"
		location = 10637
		division_template = "Infantry Division"
		start_experience_factor = 0.5
		start_equipment_factor = 0.01
	}


	division = {
		name = "1st Mobile Counter Guerrilla Force (bde)"
		location = 2007
		division_template = "Counter Guerrilla Force"
		start_experience_factor = 0.65
		start_equipment_factor = 0.01
	}
	division = {
		name = "2nd Mobile Counter Guerrilla Force (bde)"
		location = 10253
		division_template = "Counter Guerrilla Force"
		start_experience_factor = 0.65
		start_equipment_factor = 0.01
	}
	division = {
		name = "3rd Mobile Counter Guerrilla Force (bde)"
		location = 12729
		division_template = "Counter Guerrilla Force"
		start_experience_factor = 0.65
		start_equipment_factor = 0.01
	}


	#26 convoys


}

instant_effect = {

	add_equipment_to_stockpile = {
		type = command_control_equipment
		amount = 1500
		#producer = USA
	}

	add_equipment_to_stockpile = {
		type = infantry_weapons1
		amount = 10000
		#producer = ISR
	}
	add_equipment_to_stockpile = {
		type = util_vehicle_2
		amount = 750
	}

	add_equipment_to_stockpile = {
		type = Rec_tank_0 #EE-9 Cascavel
		amount = 127
		producer = BRA
	}
	add_equipment_to_stockpile = {
		type = APC_2 #M113 APC
		amount = 80
		producer = USA
	}
	add_equipment_to_stockpile = {
		type = APC_2 #EE-11 Urutu
		amount = 76
		producer = USA
	}
	add_equipment_to_stockpile = {
		type = util_vehicle_4 #RG-31 Nyala
		amount = 4
		producer = SAF
	}
	add_equipment_to_stockpile = {
		type = artillery_0 #M101
		amount = 130
		producer = USA
	}
	add_equipment_to_stockpile = {
		type = transport_helicopter2 #Sikorsky UH-60 Black Hawk
		amount = 12
		producer = USA
	}
	add_equipment_to_stockpile = {
		type = transport_helicopter1 #Bo 105
		amount = 2
		producer = GER
	}

	add_equipment_to_stockpile = {
		type = Strike_fighter1 #Dassault Mirage 5
		amount = 12
		producer = FRA
	}
	add_equipment_to_stockpile = {
		type = MR_Fighter1 #IAI Kfir
		amount = 13
		producer = ISR
	}
	add_equipment_to_stockpile = {
		type = Strike_fighter1
		amount = 34  #A-37B/AC-47T/OV-10A squadrons all in one due to similarity
		producer = USA
	}
	add_equipment_to_stockpile = {
		type = transport_helicopter1 #Bell UH-1 Iroquois
		amount = 21
		producer = USA
	}
	add_equipment_to_stockpile = {
		type = transport_helicopter2 #Sikorsky UH-60 Black Hawk
		amount = 20
		producer = USA
	}
	add_equipment_to_stockpile = {
		type = transport_helicopter1 #Mil Mi-17
		amount = 20
		producer = SOV
		#version_name = "Mil Mi-17"
	}
	add_equipment_to_stockpile = {
		type = transport_plane1 #C-130 Hercules
		amount = 17
		producer = USA
	}
	add_equipment_to_stockpile = {
		type = transport_plane2 #C-212 Aviocar
		amount = 2
		producer = SPR
	}
	add_equipment_to_stockpile = {
		type = transport_plane2 #CASA CN-235
		amount = 3
		producer = IND
	}
	add_equipment_to_stockpile = {
		type = L_Strike_fighter2 #Embraer EMB-312 Tucano
		amount = 14
		producer = BRA
	}
	add_equipment_to_stockpile = {
		type = L_Strike_fighter1 #A-37 Dragonfly
		amount = 16
		producer = USA
	}
	add_equipment_to_stockpile = {
		type = transport_helicopter1 #Bell UH-1 Iroquois
		amount = 18
		producer = USA
	}

	if = {
		limit = { has_dlc = "Death or Dishonor" }
		IND = {
			create_production_license = {
				target = COL
				equipment = {
					type = transport_plane2 #CASA CN-235
				}
				cost_factor = 0
			}
		}
		else = {
			add_equipment_production = {
				equipment = {
					type = transport_plane2 #CASA CN-235
					creator = "IND"
				}
				requested_factories = 1
				progress = 0.2
				efficiency = 50
			}
		}
	}
	if = {
		limit = { has_dlc = "Death or Dishonor" }
		USA = {
			create_production_license = {
				target = COL
				equipment = {
					type = transport_helicopter2 #Sikorsky UH-60 Black Hawk
				}
				cost_factor = 0
			}
			create_production_license = {
				target = COL
				equipment = {
					type = transport_helicopter1 #Bell UH-1 Iroquois
				}
				cost_factor = 0
			}

		}
		else = {
			add_equipment_production = {
				equipment = {
					type = transport_helicopter2 #Sikorsky UH-60 Black Hawk
					creator = "USA"
				}
				requested_factories = 1
				progress = 0.2
				efficiency = 50
			}
			add_equipment_production = {
				equipment = {
					type = transport_helicopter1 #Bell UH-1 Iroquois
					creator = "USA"
				}
				requested_factories = 1
				progress = 0.2
				efficiency = 50
			}

		}
	}


}