﻿division_template = {
	name = "Mobile Brigade"
	regiments = {
	   Mot_Militia_Bat = { x = 0 y = 0 }
	   Mot_Militia_Bat = { x = 0 y = 1 }
	   Mot_Militia_Bat = { x = 0 y = 2 }
	}

}

division_template = {
	name = "Militia Brigade"
	regiments = {
	   Militia_Bat = { x = 0 y = 0 }
	   Militia_Bat = { x = 0 y = 1 }
	   Militia_Bat = { x = 0 y = 2 }
	}

}

units = {
	division = {
		name = "1st Brigade"
		location = 4947 #Damman
		division_template = "Mobile Brigade"
		start_experience_factor = 0.3
		start_equipment_factor = 0.75
		force_equipment_variants = { infantry_weapons1 = { owner = "CHI" } }
		force_equipment_variants = { util_vehicle_1 = { owner = "CHI" } }
		force_equipment_variants = { Anti_tank_1 = { owner = "CHI" } }
		force_equipment_variants = { Heavy_Anti_tank_1 = { owner = "CHI" } }
		force_equipment_variants = { Anti_Air_0 = { owner = "CHI" } }
	}
	division = {
		name = "2nd Brigade"
		location = 4843
		division_template = "Mobile Brigade"
		start_experience_factor = 0.3
		start_equipment_factor = 0.75
		force_equipment_variants = { infantry_weapons1 = { owner = "CHI" } }
		force_equipment_variants = { util_vehicle_1 = { owner = "CHI" } }
		force_equipment_variants = { Anti_tank_1 = { owner = "CHI" } }
		force_equipment_variants = { Heavy_Anti_tank_1 = { owner = "CHI" } }
		force_equipment_variants = { Anti_Air_0 = { owner = "CHI" } }
	}
	division = {
		name = "3rd Brigade"
		location = 4947
		division_template = "Mobile Brigade"
		start_experience_factor = 0.3
		start_equipment_factor = 0.75
		force_equipment_variants = { infantry_weapons1 = { owner = "CHI" } }
		force_equipment_variants = { util_vehicle_1 = { owner = "CHI" } }
		force_equipment_variants = { Anti_tank_1 = { owner = "CHI" } }
		force_equipment_variants = { Heavy_Anti_tank_1 = { owner = "CHI" } }
		force_equipment_variants = { Anti_Air_0 = { owner = "CHI" } }
	}
	division = {
		name = "4th Brigade"
		location = 4843
		division_template = "Militia Brigade"
		start_experience_factor = 0.3
		start_equipment_factor = 0.75
		force_equipment_variants = { infantry_weapons1 = { owner = "CHI" } }
		force_equipment_variants = { Anti_tank_1 = { owner = "CHI" } }
		force_equipment_variants = { Anti_Air_0 = { owner = "CHI" } }
	}
	division = {
		name = "5th Brigade"
		location = 3167
		division_template = "Militia Brigade"
		start_experience_factor = 0.3
		start_equipment_factor = 0.75
		force_equipment_variants = { infantry_weapons1 = { owner = "CHI" } }
		force_equipment_variants = { Anti_tank_1 = { owner = "CHI" } }
		force_equipment_variants = { Anti_Air_0 = { owner = "CHI" } }
	}
	division = {
		name = "6th Brigade"
		location = 3167
		division_template = "Militia Brigade"
		start_experience_factor = 0.3
		start_equipment_factor = 0.75
		force_equipment_variants = { infantry_weapons1 = { owner = "CHI" } }
		force_equipment_variants = { Anti_tank_1 = { owner = "CHI" } }
		force_equipment_variants = { Anti_Air_0 = { owner = "CHI" } }
	}
	division = {
		name = "7th Brigade"
		location = 3167
		division_template = "Militia Brigade"
		start_experience_factor = 0.3
		start_equipment_factor = 0.75
		force_equipment_variants = { infantry_weapons1 = { owner = "CHI" } }
		force_equipment_variants = { Anti_tank_1 = { owner = "CHI" } }
		force_equipment_variants = { Anti_Air_0 = { owner = "CHI" } }
	}
	division = {
		name = "8th Brigade"
		location = 7792
		division_template = "Militia Brigade"
		start_experience_factor = 0.3
		start_equipment_factor = 0.75
		force_equipment_variants = { infantry_weapons1 = { owner = "CHI" } }
		force_equipment_variants = { Anti_tank_1 = { owner = "CHI" } }
		force_equipment_variants = { Anti_Air_0 = { owner = "CHI" } }
	}
	division = {
		name = "9th Brigade"
		location = 12526
		division_template = "Militia Brigade"
		start_experience_factor = 0.3
		start_equipment_factor = 0.75
		force_equipment_variants = { infantry_weapons1 = { owner = "CHI" } }
		force_equipment_variants = { Anti_tank_1 = { owner = "CHI" } }
		force_equipment_variants = { Anti_Air_0 = { owner = "CHI" } }
	}
	division = {
		name = "10th Brigade"
		location = 1766
		division_template = "Militia Brigade"
		start_experience_factor = 0.3
		start_equipment_factor = 0.75
		force_equipment_variants = { infantry_weapons1 = { owner = "CHI" } }
		force_equipment_variants = { Anti_tank_1 = { owner = "CHI" } }
		force_equipment_variants = { Anti_Air_0 = { owner = "CHI" } }
	}
	division = {
		name = "11th Brigade"
		location = 4947 #Damman
		division_template = "Mobile Brigade"
		start_experience_factor = 0.3
		start_equipment_factor = 0.75
		force_equipment_variants = { infantry_weapons1 = { owner = "CHI" } }
		force_equipment_variants = { util_vehicle_1 = { owner = "CHI" } }
		force_equipment_variants = { Anti_tank_1 = { owner = "CHI" } }
		force_equipment_variants = { Heavy_Anti_tank_1 = { owner = "CHI" } }
		force_equipment_variants = { Anti_Air_0 = { owner = "CHI" } }
	}
	division = {
		name = "12th Brigade"
		location = 4843
		division_template = "Mobile Brigade"
		start_experience_factor = 0.3
		start_equipment_factor = 0.75
		force_equipment_variants = { infantry_weapons1 = { owner = "CHI" } }
		force_equipment_variants = { util_vehicle_1 = { owner = "CHI" } }
		force_equipment_variants = { Anti_tank_1 = { owner = "CHI" } }
		force_equipment_variants = { Heavy_Anti_tank_1 = { owner = "CHI" } }
		force_equipment_variants = { Anti_Air_0 = { owner = "CHI" } }
	}
	division = {
		name = "13th Brigade"
		location = 4947
		division_template = "Mobile Brigade"
		start_experience_factor = 0.3
		start_equipment_factor = 0.75
		force_equipment_variants = { infantry_weapons1 = { owner = "CHI" } }
		force_equipment_variants = { util_vehicle_1 = { owner = "CHI" } }
		force_equipment_variants = { Anti_tank_1 = { owner = "CHI" } }
		force_equipment_variants = { Heavy_Anti_tank_1 = { owner = "CHI" } }
		force_equipment_variants = { Anti_Air_0 = { owner = "CHI" } }
	}
	division = {
		name = "14th Brigade"
		location = 4843
		division_template = "Militia Brigade"
		start_experience_factor = 0.3
		start_equipment_factor = 0.75
		force_equipment_variants = { infantry_weapons1 = { owner = "CHI" } }
		force_equipment_variants = { Anti_tank_1 = { owner = "CHI" } }
		force_equipment_variants = { Anti_Air_0 = { owner = "CHI" } }
	}
	division = {
		name = "15th Brigade"
		location = 3167
		division_template = "Militia Brigade"
		start_experience_factor = 0.3
		start_equipment_factor = 0.75
		force_equipment_variants = { infantry_weapons1 = { owner = "CHI" } }
		force_equipment_variants = { Anti_tank_1 = { owner = "CHI" } }
		force_equipment_variants = { Anti_Air_0 = { owner = "CHI" } }
	}
	division = {
		name = "16th Brigade"
		location = 3167
		division_template = "Militia Brigade"
		start_experience_factor = 0.3
		start_equipment_factor = 0.75
		force_equipment_variants = { infantry_weapons1 = { owner = "CHI" } }
		force_equipment_variants = { Anti_tank_1 = { owner = "CHI" } }
		force_equipment_variants = { Anti_Air_0 = { owner = "CHI" } }
	}
	division = {
		name = "17th Brigade"
		location = 3167
		division_template = "Militia Brigade"
		start_experience_factor = 0.3
		start_equipment_factor = 0.75
		force_equipment_variants = { infantry_weapons1 = { owner = "CHI" } }
		force_equipment_variants = { Anti_tank_1 = { owner = "CHI" } }
		force_equipment_variants = { Anti_Air_0 = { owner = "CHI" } }
	}
	division = {
		name = "18th Brigade"
		location = 7792
		division_template = "Militia Brigade"
		start_experience_factor = 0.3
		start_equipment_factor = 0.75
		force_equipment_variants = { infantry_weapons1 = { owner = "CHI" } }
		force_equipment_variants = { Anti_tank_1 = { owner = "CHI" } }
		force_equipment_variants = { Anti_Air_0 = { owner = "CHI" } }
	}
	division = {
		name = "19th Brigade"
		location = 12526
		division_template = "Militia Brigade"
		start_experience_factor = 0.3
		start_equipment_factor = 0.75
		force_equipment_variants = { infantry_weapons1 = { owner = "CHI" } }
		force_equipment_variants = { Anti_tank_1 = { owner = "CHI" } }
		force_equipment_variants = { Anti_Air_0 = { owner = "CHI" } }
	}
	division = {
		name = "20th Brigade"
		location = 1766
		division_template = "Militia Brigade"
		start_experience_factor = 0.3
		start_equipment_factor = 0.75
		force_equipment_variants = { infantry_weapons1 = { owner = "CHI" } }
		force_equipment_variants = { Anti_tank_1 = { owner = "CHI" } }
		force_equipment_variants = { Anti_Air_0 = { owner = "CHI" } }
	}
}