﻿division_template = {
	name = "Mekhanizirana Peshadiska Brigada"

	regiments = {
		armor_Bat = { x = 0 y = 0 }
		Mech_Inf_Bat = { x = 0 y = 1 }
		Arm_Inf_Bat = { x = 1 y = 0 }
		SP_Arty_Bat = { x = 1 y = 1 }
		Mech_Inf_Bat = { x = 2 y = 0 }
		Mech_Inf_Bat = { x = 2 y = 1 }
		Mech_Inf_Bat = { x = 2 y = 2 }
	}
}

division_template = {
	name = "Polk za Spechiyalni Operachii"

	regiments = {
		Special_Forces = { x = 0 y = 0 }
		L_Air_Inf_Bat = { x = 0 y = 1 }
	}

	priority = 2
}

units = {
	division = {
		name = "1. Mekhanizirana Peshadiska Brigada"
		location = 3882
		division_template = "Mekhanizirana Peshadiska Brigada"
		start_experience_factor = 0.5
		start_equipment_factor = 0.01
	}

	division = {
		name = "Polk za Spechiyalni Operachii"
		location = 3882
		division_template = "Polk za Spechiyalni Operachii"
		start_experience_factor = 0.7
		start_equipment_factor = 0.01
	}
}

instant_effect = {
	add_equipment_to_stockpile = {
		type = MBT_2		#T-72
		amount = 31
		producer = SOV
	}

	add_equipment_to_stockpile = {
		type = IFV_3		#BMP-2
		amount = 11
		producer = SOV
	}

	add_equipment_to_stockpile = {
		type = APC_2		#MT-LB
		amount = 11
		producer = SOV
	}

	add_equipment_to_stockpile = {
		type = APC_4		#BTR-80
		amount = 12
		producer = SOV
	}

	add_equipment_to_stockpile = {
		type = APC_3		#BTR-70
		amount = 60
		producer = SOV
	}

	add_equipment_to_stockpile = {
		type = APC_2		#TM-170
		amount = 115
		producer = GER
	}

	add_equipment_to_stockpile = {
		type = APC_3		#Leonidas 2
		amount = 10
		producer = GRE
	}

	add_equipment_to_stockpile = {
		type = APC_2		#M113
		amount = 30
		producer = USA
	}

	add_equipment_to_stockpile = {
		type = util_vehicle_2		#Humvee
		amount = 80
		producer = USA
	}

	add_equipment_to_stockpile = {
		type = util_vehicle_2		#Land Rover Defender
		amount = 100
		producer = ENG
	}

	add_equipment_to_stockpile = {
		type = util_vehicle_3		#Otokar Cobra
		amount = 2
		producer = TUR
	}

	add_equipment_to_stockpile = {
		type = SP_R_arty_0		#BM-21 Grad
		amount = 12
		producer = SOV
	}

	add_equipment_to_stockpile = {
		type = SP_R_arty_0		#M-63 Plamen
		amount = 12
		producer = SER
	}

	add_equipment_to_stockpile = {
		type = infantry_weapons4		#M4
		amount = 400
		producer = USA
	}

	add_equipment_to_stockpile = {
		type = infantry_weapons		#G3
		amount = 400
		producer = GER
	}

	add_equipment_to_stockpile = {
		type = infantry_weapons4		#Zastava M21
		amount = 400
		producer = SER
	}

	add_equipment_to_stockpile = {
		type = infantry_weapons1		#Zastava M70
		amount = 400
		producer = SER
	}

	add_equipment_to_stockpile = {
		type = Anti_tank_1		#MILAN
		amount = 50
		producer = FRA
	}

	add_equipment_to_stockpile = {
		type = attack_helicopter1		#Mi-24
		amount = 6
		producer = SOV
	}

	add_equipment_to_stockpile = {
		type = transport_helicopter1		#Mi-17
		amount = 6
		producer = SOV
	}

	add_equipment_to_stockpile = {
		type = transport_helicopter1		#UH-1
		amount = 2
		producer = USA
	}

	add_equipment_to_stockpile = {
		type = SP_Anti_Air_1		#SA-13 Strela-10
		#version_name = "SA-13 Strela-10"
		amount = 8
		producer = SOV
	}

	add_equipment_to_stockpile = {
		type = Anti_Air_1		#Igla
		amount = 30
		producer = SOV
	}

	add_equipment_to_stockpile = {
		type = Anti_Air_0		#Strela-2
		amount = 30
		producer = SOV
	}


	add_equipment_to_stockpile = {
		type = command_control_equipment
		amount = 200
		producer = SOV
	}
}