﻿units = {

	### Naval OOB ###
	fleet = {
		name = "Nigerian Navy"
		naval_base = 2050
		task_force = {
			name = "Nigerian Navy"
			location = 2050
			ship = { name = "NNS Aradu" definition = destroyer start_experience_factor = 0.15 equipment = { destroyer_hull_2 = { amount = 1 owner = NIG creator = GER version_name = "MEKO 360 Class - 360H1 Variant" } } }
			ship = { name = "NNS Erinomi" definition = corvette start_experience_factor = 0.15 equipment = { corvette_hull_1 = { amount = 1 owner = NIG } } }
		}
	}
}
