﻿units = {

	### Naval OOB ###
	fleet = {
		name = "Aircraft Carrier Group"
		naval_base = 1349
		task_force = {
			name = "Aircraft Carrier Group"
			location = 1349 # Mumbai
			ship = { name = "INS Viraat" definition = carrier start_experience_factor = 0.75 equipment = { carrier_0 = { amount = 1 owner = RAJ  } } }
		}
	}
}
