﻿units = {

	### Naval OOB ###
	 fleet = {
	   name = "1-a Bryhada nadvodnyh korabliv"
	   naval_base = 11670
		task_force = {
			name = "1-a Bryhada nadvodnyh korabliv"
			location = 11670
			ship = { name = "Hetman Sahaydachnyi" definition = frigate start_experience_factor = 0.50 equipment = { frigate_hull_3 = { amount = 1 owner = UKR version_name = "Krivak Class" } } }
			ship = { name = "Vinnytsia" definition = corvette start_experience_factor = 0.50 equipment = { corvette_hull_2 = { amount = 1 owner = UKR  version_name = "Grisha Class" } } }
		}
	}
}
